<?xml version="1.0" standalone="no"?>
<!DOCTYPE svg PUBLIC "-//W3C//DTD SVG 1.1//EN" "http://www.w3.org/Graphics/SVG/1.1/DTD/svg11.dtd" >
<svg xmlns="http://www.w3.org/2000/svg">
<metadata>Generated by IcoMoon</metadata>
<defs>
<font id="icomoon" horiz-adv-x="512">
<font-face units-per-em="512" ascent="480" descent="-32" />
<missing-glyph horiz-adv-x="512" />
<glyph unicode="&#x20;" d="" horiz-adv-x="256" />
<glyph unicode="&#xe600;" d="M505.087 22.125l-274.317 249.729 12.767 12.799c10.447 10.477 16.094 24.015 16.959 37.805 0.501 0.225 1.001 0.456 1.479 0.721l51.495 32.201c6.967 8.196 6.458 21.134-1.142 28.751l-89.56 89.804c-7.595 7.617-20.499 8.131-28.672 1.142l-32.118-51.634c-0.263-0.483-0.495-0.983-0.72-1.487-13.751-0.868-27.25-6.528-37.699-17.003l-48.714-48.851c-10.449-10.478-16.092-24.013-16.959-37.802-0.502-0.225-1.002-0.458-1.482-0.723l-51.493-32.203c-6.971-8.195-6.458-21.132 1.138-28.748l89.56-89.802c7.597-7.619 20.498-8.131 28.675-1.143l32.114 51.635c0.264 0.479 0.494 0.98 0.721 1.483 13.751 0.869 27.252 6.525 37.699 17.002l14.146 14.186 249.061-275.057c7.218-7.972 18.35-9.259 24.737-2.856l25.178 25.244c6.382 6.404 5.098 17.566-2.853 24.807z" />
<glyph unicode="&#xe601;" d="M287.935-32h-95.935v256h-64v88.225l64 0.029-0.104 51.976c0 71.976 19.517 115.77 104.299 115.77h70.588v-88.242h-44.115c-33.016 0-34.603-12.328-34.603-35.342l-0.131-44.162h79.345l-9.352-88.225-69.927-0.029-0.065-256z" />
<glyph unicode="&#xe602;" d="M426.672 480h-341.33c-46.936 0-85.342-38.407-85.342-85.344v-341.313c0-46.969 38.406-85.343 85.342-85.343l341.33 0.001c46.938 0 85.328 38.373 85.328 85.344v341.311c0 46.937-38.391 85.344-85.328 85.344zM435.296 224h-83.296v-224h-96v224h-46.263v73.282h46.263v47.593c0 64.671 27.896 103.125 103.935 103.125h87.622v-79.285h-71.565c-21.241 0.035-23.876-11.076-23.876-31.756l-0.116-39.677h96l-12.704-73.282z" />
<glyph unicode="&#xe603;" d="M256 480c141.385 0 256-114.615 256-256 0-130.547-97.719-238.265-224-254.013v190.013h88l8 64h-96v32c0 17.673 14.327 32 32 32h64v64h-64c-53.020 0-96-42.98-96-96v-32h-48v-64h48v-190.013c-126.281 15.748-224 123.466-224 254.013 0 141.385 114.615 256 256 256z" />
<glyph unicode="&#xe604;" d="M512 382.791c-18.838-8.354-39.082-14.001-60.33-16.54 21.686 13 38.343 33.585 46.186 58.115-20.298-12.039-42.778-20.78-66.705-25.49-19.16 20.415-46.461 33.17-76.673 33.17-58.011 0-105.044-47.029-105.044-105.039 0-8.233 0.929-16.25 2.72-23.939-87.3 4.382-164.701 46.2-216.509 109.753-9.042-15.514-14.223-33.558-14.223-52.809 0-36.444 18.544-68.596 46.73-87.433-17.219 0.546-33.416 5.271-47.577 13.139-0.010-0.438-0.010-0.878-0.010-1.321 0-50.894 36.209-93.348 84.261-103-8.813-2.4-18.094-3.686-27.674-3.686-6.769 0-13.349 0.66-19.764 1.886 13.368-41.73 52.16-72.103 98.126-72.948-35.95-28.175-81.243-44.967-130.458-44.967-8.479 0-16.84 0.497-25.058 1.47 46.486-29.805 101.701-47.197 161.021-47.197 193.211 0 298.868 160.062 298.868 298.872 0 4.554-0.103 9.084-0.305 13.59 20.528 14.81 38.336 33.31 52.418 54.374z" />
<glyph unicode="&#xe605;" d="M426.671 480h-341.328c-46.937 0-85.343-38.405-85.343-85.345v-341.311c0-46.969 38.406-85.344 85.343-85.344h341.328c46.938 0 85.329 38.375 85.329 85.345v341.31c0 46.94-38.391 85.345-85.329 85.345zM419.026 309.083c0.164-3.671 0.245-7.364 0.245-11.074 0-113.107-84.608-243.534-239.329-243.534-47.502 0-91.717 14.174-128.943 38.459 6.58-0.794 13.276-1.197 20.065-1.197 39.411 0 75.679 13.685 104.467 36.641-36.808 0.69-67.872 25.438-78.577 59.441 5.137-1 10.406-1.537 15.826-1.537 7.672 0 15.103 1.048 22.16 3.004-38.48 7.866-67.475 42.458-67.475 83.928 0 0.361 0 0.719 0.008 1.076 11.34-6.41 24.312-10.26 38.1-10.705-22.571 15.349-37.421 41.546-37.421 71.244 0 15.685 4.147 30.389 11.389 43.029 41.487-51.785 103.468-85.86 173.377-89.431-1.435 6.266-2.179 12.798-2.179 19.507 0 47.269 37.663 85.59 84.115 85.59 24.195 0 46.059-10.393 61.401-27.029 19.16 3.838 37.162 10.96 53.416 20.771-6.281-19.988-19.617-36.761-36.983-47.355 17.013 2.069 33.226 6.67 48.31 13.477-11.273-17.162-25.535-32.238-41.972-44.305z" />
<glyph unicode="&#xe606;" d="M256 480c-141.385 0-256-114.615-256-256s114.615-256 256-256 256 114.615 256 256-114.615 256-256 256zM403.121 299.456c0.146-3.254 0.221-6.528 0.221-9.819 0-100.311-76.354-215.982-215.979-215.982-42.868 0-82.768 12.568-116.363 34.107 5.938-0.704 11.981-1.063 18.108-1.063 35.565 0 68.295 12.138 94.275 32.497-33.217 0.61-61.25 22.561-70.912 52.716 4.637-0.884 9.392-1.361 14.283-1.361 6.923 0 13.629 0.928 19.999 2.662-34.726 6.976-60.893 37.656-60.893 74.434 0 0.32 0 0.639 0.008 0.955 10.235-5.685 21.939-9.1 34.382-9.494-20.37 13.611-33.77 36.846-33.77 63.184 0 13.911 3.744 26.952 10.278 38.162 37.439-45.927 93.374-76.146 156.462-79.314-1.294 5.559-1.965 11.351-1.965 17.302 0 41.92 33.99 75.906 75.909 75.906 21.833 0 41.562-9.218 55.409-23.97 17.29 3.404 33.537 9.721 48.206 18.42-5.668-17.727-17.705-32.603-33.376-41.997 15.355 1.834 29.984 5.916 43.597 11.952-10.175-15.224-23.045-28.593-37.879-39.297z" />
<glyph unicode="&#xe607;" d="M68.147 104.535c-37.598 0-68.146-30.667-68.146-68.038 0-37.577 30.55-67.901 68.146-67.901 37.733 0 68.247 30.324 68.247 67.901-0.001 37.371-30.512 68.038-68.247 68.038zM0.078 306.035v-98.129c63.892 0 123.979-24.986 169.229-70.256 45.192-45.159 70.141-105.518 70.141-169.65h98.561c-0.001 186.41-151.641 338.035-337.931 338.035zM0.194 480v-98.178c227.891 0 413.378-185.667 413.378-413.822h98.428c0 282.235-229.627 512-511.806 512z" />
<glyph unicode="&#xe608;" d="M426.67 480h-341.327c-46.938 0-85.343-38.406-85.343-85.344v-341.314c0-46.967 38.406-85.342 85.344-85.342h341.326c46.938 0 85.33 38.374 85.33 85.342v341.314c0 46.938-38.392 85.344-85.33 85.344zM139.472 64.376c-23.985 0-43.472 19.346-43.472 43.314 0 23.842 19.486 43.406 43.472 43.406 24.079 0 43.53-19.564 43.53-43.406-0.001-23.968-19.452-43.314-43.53-43.314zM248.734 64.002c0 40.905-15.904 79.409-44.73 108.222-28.857 28.875-67.188 44.813-107.952 44.813v62.593c118.826 0 215.563-96.721 215.563-215.627l-62.881-0.001zM359.814 64.002c0 145.531-118.329 263.97-263.688 263.97v62.624c180.001 0 326.473-146.562 326.473-326.596l-62.785 0.002z" />
<glyph unicode="&#xe609;" d="M256 480c-141.385 0-256-114.615-256-256s114.615-256 256-256 256 114.615 256 256-114.615 256-256 256zM160 96c-17.673 0-32 14.327-32 32s14.327 32 32 32 32-14.327 32-32-14.327-32-32-32zM248 96c0 66.168-53.832 120-120 120v48c92.636 0 168-75.364 168-168h-48zM344 96c0 57.695-22.468 111.938-63.265 152.735s-95.039 63.265-152.735 63.265v48c70.517 0 136.813-27.461 186.677-77.324 49.862-49.863 77.323-116.159 77.323-186.676h-48z" />
<glyph unicode="&#xe60a;" d="M416 416h-320c-52.8 0-96-43.2-96-96v-192c0-52.8 43.2-96 96-96h320c52.8 0 96 43.2 96 96v192c0 52.8-43.2 96-96 96zM192 96v256l160-128-160-128z" />
<glyph unicode="&#xe60b;" d="M416 416h-320c-52.8 0-96-43.2-96-96v-192c0-52.8 43.2-96 96-96h320c52.8 0 96 43.2 96 96v192c0 52.8-43.2 96-96 96zM480 128c0-16.989-6.687-33.031-18.827-45.173-12.142-12.14-28.183-18.827-45.173-18.827h-320c-16.989 0-33.031 6.687-45.172 18.827-12.141 12.142-18.828 28.184-18.828 45.173v192c0 16.989 6.687 33.031 18.828 45.172s28.183 18.828 45.172 18.828h320c16.989 0 33.031-6.687 45.173-18.828s18.827-28.183 18.827-45.172v-192zM192 96l160 128-160 128z" />
<glyph unicode="&#xe60c;" d="M288.016 256l-0.001-117.092c0-29.709-0.385-46.828 2.765-55.25 3.125-8.377 10.959-17.073 19.495-22.101 11.342-6.794 24.271-10.188 38.854-10.188 25.927 0 41.239 3.424 66.871 20.27v-76.972c-21.85-10.276-40.933-16.297-58.662-20.461-17.75-4.121-36.93-6.203-57.532-6.203-23.414 0-37.228 2.943-55.205 8.828-17.979 5.934-33.33 14.403-46.010 25.27-12.725 10.961-21.511 22.604-26.424 34.916-4.913 12.318-7.358 30.207-7.358 53.622v179.55h-68.713v72.503c20.104 6.521 42.582 15.894 56.89 28.076 14.377 12.225 25.883 26.853 34.553 43.972 8.696 17.073 14.674 38.856 17.936 65.258h82.542l-0.001-127.998h127.984v-96h-127.984z" />
<glyph unicode="&#xe60d;" d="M206.115 224.043c-23.854 12.259-47.043 18.479-68.94 18.479-2.978 0-5.976-0.090-8.974-0.354-27.94-2.312-53.461-9.684-69.875-15.414-4.354-1.599-8.817-3.288-13.415-5.153l-44.911-155.697c30.851 11.416 58.146 16.969 83.135 16.969 40.423 0 69.764-15.104 93.996-30.652 11.481 38.959 39.022 133.045 47.241 161.162-5.975 3.642-12.038 7.285-18.257 10.66zM264.174 184.465l-45.223-157.074c13.416-7.686 58.549-32.025 93.106-32.025 27.896 0 59.126 7.148 95.417 21.896l43.178 150.988c-29.316-9.461-57.438-14.26-83.732-14.26-47.975 0-81.557 15.549-102.746 30.475zM146.411 295.605c38.559-0.399 67.076-15.104 90.708-30.251l46.376 158.672c-9.773 5.598-35.403 19.547-53.929 24.3-12.193 2.842-25.010 4.308-38.602 4.308-25.898-0.488-54.194-6.973-86.444-19.9l-44.22-155.298c32.404 12.218 60.322 18.17 86.043 18.17 0.023-0.001 0.068-0.001 0.068-0.001zM512 380.938c-29.407-11.416-58.104-17.233-85.514-17.233-45.843 0-79.646 15.901-101.547 31.183l-45.975-159.118c30.873-19.854 64.145-29.939 99.061-29.939 28.474 0 57.97 6.84 87.731 20.344l-0.091 1.111 1.867 0.443 44.468 153.209z" />
<glyph unicode="&#xe60e;" d="M0.175 224l-0.175 156.037 192 26.072v-182.109zM224 410.759l255.936 37.241v-224h-255.936zM479.999 192l-0.063-224-255.936 36.008v187.992zM192 8.082l-191.844 26.297-0.010 157.621h191.854z" />
<glyph unicode="&#xe60f;" d="M487.655 191.031c1.406 10.4 2.215 20.973 2.215 31.736 0 129.155-105.271 233.872-235.103 233.872-12.904 0-25.555-1.060-37.866-3.080-22.072 14.384-48.342 22.767-76.612 22.767-77.523 0-140.289-62.808-140.289-140.306 0-28.198 8.299-54.394 22.59-76.389-1.925-12.017-2.909-24.323-2.909-36.859 0-129.176 105.217-233.882 235.085-233.882 14.657 0 28.927 1.427 42.796 3.933 21.55-13.369 46.934-21.148 74.146-21.148 77.502-0.001 140.292 62.823 140.292 140.313-0.003 29.293-8.96 56.528-24.345 79.043zM276.74 50.404c-74.705-3.892-109.664 12.637-141.689 42.691-35.765 33.567-21.398 71.854 7.74 73.801 29.122 1.944 46.607-33.013 62.15-42.736 15.524-9.688 74.594-31.76 105.794 3.908 33.976 38.828-22.594 58.92-64.059 65.002-59.203 8.766-133.95 40.792-128.135 103.907 5.816 63.074 53.582 95.414 103.85 99.976 64.077 5.817 105.791-9.707 138.785-37.86 38.15-32.529 17.508-68.894-6.799-71.82-24.212-2.909-51.404 53.504-104.791 54.352-55.027 0.864-92.217-57.261-24.286-73.784 67.966-16.505 140.75-23.286 166.961-85.417 26.229-62.137-40.754-128.125-115.521-132.020z" />
<glyph unicode="&#xe610;" d="M426 480h-340c-47.3 0-86-38.7-86-86v-340c0-47.3 38.7-86 86-86h340c47.3 0 86 38.7 86 86v340c0 47.3-38.7 86-86 86zM192 64h-64v224h64v-224zM160 320c-17.673 0-32 14.327-32 32s14.327 32 32 32 32-14.327 32-32-14.327-32-32-32zM416 64h-64v128c0 17.673-14.327 32-32 32s-32-14.327-32-32v-128h-64v224h64v-39.736c13.199 18.132 33.376 39.736 56 39.736 39.765 0 72-35.817 72-80v-144z" />
<glyph unicode="&#xe611;" d="M256 480c-141.385 0-256-114.615-256-256s114.613-256 256-256c141.385 0 256 114.615 256 256s-114.615 256-256 256zM280.822 137.941c-23.26 1.807-33.021 13.328-51.252 24.404-10.030-52.588-22.282-103.008-58.57-129.343-11.202 79.484 16.447 139.182 29.285 202.557-21.892 36.853 2.635 111.017 48.81 92.737 56.813-22.474-49.2-137.004 21.966-151.308 74.31-14.934 104.644 128.929 58.571 175.712-66.579 67.553-193.799 1.54-178.155-95.178 3.807-23.646 28.236-30.819 9.762-63.451-42.61 9.446-55.325 43.051-53.688 87.856 2.634 73.337 65.892 124.682 129.343 131.783 80.242 8.982 155.553-29.454 165.953-104.938 11.706-85.195-36.224-177.465-122.025-170.831z" />
<glyph unicode="&#xe612;" d="M426.675 480h-341.351c-47.125 0-85.324-38.21-85.324-85.343v-341.315c0-47.133 38.199-85.342 85.324-85.342h341.351c47.125 0 85.325 38.209 85.325 85.342v341.315c0 47.133-38.2 85.343-85.325 85.343zM280.822 137.941c-23.26 1.807-33.021 13.328-51.252 24.404-10.030-52.589-22.281-103.009-58.569-129.344-11.202 79.484 16.447 139.182 29.285 202.557-21.893 36.853 2.635 111.017 48.81 92.737 56.813-22.474-49.2-137.004 21.966-151.308 74.31-14.934 104.644 128.929 58.571 175.712-66.579 67.553-193.799 1.54-178.155-95.178 3.807-23.646 28.236-30.819 9.762-63.451-42.61 9.446-55.325 43.051-53.688 87.856 2.634 73.337 65.892 124.682 129.343 131.783 80.242 8.982 155.553-29.454 165.953-104.938 11.705-85.194-36.225-177.464-122.026-170.83z" />
<glyph unicode="&#xe613;" d="M129.139 256.729l-73.266 126.901c46.909 58.732 119.117 96.37 200.127 96.37 93.716 0 175.655-50.368 220.266-125.5h-208.885c-3.752 0.325-7.546 0.5-11.381 0.5-60.937 0-112.289-41.822-126.861-98.271zM347.653 317.5h146.73c11.37-28.965 17.617-60.502 17.617-93.5 0-140.413-113.050-254.402-253.093-255.963l104.697 181.339c14.74 21.189 23.396 46.913 23.396 74.624 0 36.585-15.082 69.71-39.347 93.5zM163 224c0 51.28 41.72 93 93 93s93-41.72 93-93c0-51.28-41.72-93-93-93s-93 41.72-93 93zM291.091 97.779l-73.289-126.939c-123.266 18.442-217.802 124.758-217.802 253.16 0 45.609 11.942 88.423 32.848 125.512l104.515-181.027c20.934-44.556 66.238-75.485 118.637-75.485 12.15 0 23.918 1.67 35.091 4.779z" />
<glyph unicode="&#xe614;" d="M511.263 312.93l-5.93-38.040c0 0-8.477 70.428-18.866 96.757-15.923 40.344-23.007 40.020-23.054 39.961 10.665-27.102 8.731-41.662 8.731-41.662s-18.896 51.499-68.856 67.884c-55.343 18.141-85.285 13.182-88.744 12.243-0.525 0.004-1.032 0.005-1.515 0.005 0.409-0.031 0.806-0.073 1.213-0.106-0.017-0.010-0.045-0.021-0.041-0.026 0.225-0.274 61.153-10.651 71.958-25.498 0 0-25.88 0-51.636-7.421-1.164-0.333 94.762-11.982 114.373-107.837 0 0-10.515 21.938-23.52 25.664 8.553-26.018 6.357-75.388-1.788-99.925-1.048-3.156-2.12 13.641-18.164 20.875 5.14-36.823-0.308-95.228-25.854-111.316-1.991-1.252 16.015 57.655 3.621 34.881-71.354-109.401-155.702-50.486-193.624-24.555 19.433-4.231 56.327 0.659 72.657 12.806 0.021 0.015 0.039 0.028 0.059 0.043 17.734 12.126 28.236 20.982 37.667 18.886 9.437-2.107 15.719 7.363 8.39 15.765-7.338 8.419-25.157 19.989-49.262 13.683-17-4.452-38.067-23.261-70.224-4.216-24.682 14.625-27.006 26.773-27.225 35.188 0.609 2.983 1.377 5.768 2.288 8.312 2.841 7.935 11.456 10.329 16.247 12.219 8.128-1.396 15.131-3.931 22.484-7.703 0.095 2.447 0.126 5.695-0.009 9.38 0.705 1.401 0.269 5.626-0.861 10.79-0.651 5.154-1.71 10.487-3.376 15.346 0.006 0.001 0.010 0.005 0.015 0.007 0.028 0.009 0.054 0.020 0.078 0.035 0.039 0.022 0.073 0.056 0.104 0.095 0.006 0.010 0.015 0.017 0.022 0.026 0.041 0.062 0.077 0.136 0.099 0.233 0.51 2.309 6.011 6.762 12.859 11.55 6.136 4.29 13.351 8.848 19.034 12.376 5.030 3.124 8.86 5.441 9.673 6.049 0.309 0.233 0.679 0.506 1.082 0.818 0.075 0.058 0.15 0.116 0.227 0.177 0.047 0.037 0.095 0.074 0.143 0.113 2.705 2.154 6.742 6.224 7.589 14.789 0.002 0.021 0.005 0.040 0.006 0.061 0.025 0.252 0.046 0.507 0.065 0.767 0.014 0.181 0.025 0.363 0.036 0.548 0.007 0.142 0.016 0.283 0.022 0.428 0.015 0.337 0.025 0.682 0.030 1.032 0 0.020 0.001 0.038 0.002 0.058 0.011 0.829-0.003 1.693-0.052 2.601-0.027 0.507-0.063 0.965-0.149 1.381-0.004 0.022-0.009 0.046-0.014 0.068-0.009 0.041-0.018 0.082-0.029 0.122-0.018 0.073-0.038 0.146-0.061 0.215-0.003 0.009-0.005 0.016-0.008 0.023-0.026 0.080-0.056 0.157-0.087 0.232-0.002 0.003-0.002 0.005-0.003 0.008-0.877 2.054-4.16 2.829-17.721 3.059-0.013 0.001-0.025 0.001-0.038 0.001v0c-5.533 0.094-12.769 0.097-22.251 0.059-16.625-0.067-25.814 16.252-28.747 22.566 4.020 22.23 15.638 38.071 34.725 48.813 0.361 0.203 0.29 0.371-0.137 0.489 3.732 2.257-45.123 0.062-67.593-28.518-19.944 4.957-37.327 4.623-52.308 1.107-2.877 0.081-6.462 0.44-10.717 1.326-9.962 9.028-24.224 25.701-24.988 45.604 0 0-0.046-0.036-0.126-0.102-0.010 0.191-0.028 0.38-0.036 0.571 0 0-30.358-23.332-25.814-86.941-0.011-1.018-0.032-1.993-0.060-2.937-8.216-11.144-12.293-20.51-12.596-22.578-7.28-14.822-14.667-37.127-20.678-70.99 0 0 4.204 13.333 12.642 28.433-6.206-19.011-11.082-48.578-8.218-92.928 0 0 0.757 9.833 3.437 23.997 2.093-27.505 11.259-61.462 34.429-101.394 44.474-76.66 112.835-115.37 188.396-121.308 13.418-1.106 27.025-1.132 40.712-0.093 1.258 0.089 2.516 0.182 3.775 0.287 15.482 1.087 31.067 3.426 46.619 7.183 212.586 51.399 189.471 308.099 189.471 308.099z" />
<glyph unicode="&#xe615;" d="M367.101 165.585h118.025c0.91 8.185 1.274 16.549 1.274 25.098 0 40.112-10.767 77.734-29.562 110.133 19.44 51.654 18.746 95.494-7.278 121.695-24.748 24.64-91.145 20.64-166.206-12.599-5.552 0.42-11.159 0.636-16.819 0.636-103.024 0-189.463-70.897-213.354-166.425 32.319 41.377 66.319 71.377 111.739 93.224-4.13-3.87-28.227-27.826-32.28-31.882-119.774-119.739-157.545-276.153-116.903-316.802 30.893-30.887 86.879-25.671 151.188 5.824 29.903-15.229 63.75-23.815 99.609-23.815 96.567 0 178.402 62.158 208.045 148.724h-118.934c-16.367-30.191-48.374-50.74-85.109-50.74s-68.742 20.549-85.108 50.74c-7.275 13.637-11.457 29.277-11.457 45.828v0.361h193.13zM174.151 223.598c2.728 48.555 43.1 87.292 92.383 87.292s89.656-38.736 92.383-87.292h-184.766zM448.483 398.096c16.763-16.94 16.344-48.107 2.006-87.011-24.568 37.454-60.259 66.968-102.396 83.82 45.053 19.319 81.703 21.878 100.39 3.191zM46.741-3.628c-21.391 21.398-14.942 66.309 12.615 120.416 17.154-48.135 50.578-88.545 93.668-114.577-47.715-21.659-86.768-25.337-106.283-5.839z" />
<glyph unicode="&#xe616;" d="M255.023 480c-139.862 0-240.374-101.448-240.374-253.612 0-135.409 97.751-258.388 240.392-258.388 144.039 0 242.31 122.943 242.31 258.388 0 153.38-103.723 253.612-242.328 253.612zM344.179 230.729c-0.034-84.676-4.549-205.241-89.138-205.241v-0.017c-83.392 0-86.716 120.633-86.716 205.154 0 99.19 9.28 194.284 86.716 194.284 77.437 0 89.138-96.292 89.138-194.18z" />
<glyph unicode="&#xe617;" d="M256 448c-12.032 0-23.854-0.896-35.412-2.606-0.15 0.391-0.312 0.774-0.491 1.148 6.413 5.001 9.775 11.915 8.317 18.776-1.867 8.782-11.197 14.682-23.217 14.682-2.59 0-5.229-0.281-7.84-0.836-15.084-3.207-25.073-14.311-22.741-25.281 1.417-6.669 7.146-11.669 15.082-13.692-0.016-0.486-0.008-0.975 0.021-1.467-100.311-28.765-173.719-121.169-173.719-230.724 0-132.549 107.452-240 240-240s240 107.451 240 240c0 132.548-107.451 240-240 240zM182.441 455.546c-1.353 6.363 6.24 13.595 16.579 15.792 2.066 0.439 4.145 0.662 6.177 0.662 8.018 0 14.347-3.432 15.392-8.345 0.798-3.755-1.535-7.805-5.693-10.952-3.517 2.483-8.008 3.563-12.55 2.598-4.522-0.961-8.174-3.754-10.379-7.428-5.092 1.225-8.754 4.042-9.526 7.673zM384.693 79.307c-21.984-21.984-48.605-37.639-77.655-46.077l-21.198 34.384-5.373-39.979c-8.045-1.076-16.213-1.635-24.467-1.635-48.614 0-94.318 18.932-128.693 53.307-21.984 21.983-37.639 48.605-46.077 77.654l34.384 21.199-39.98 5.373c-1.075 8.045-1.634 16.213-1.634 24.467 0 48.614 18.931 94.318 53.307 128.693 21.984 21.984 48.606 37.639 77.655 46.078l21.198-34.385 5.374 39.98c8.044 1.075 16.212 1.634 24.466 1.634 48.614 0 94.318-18.931 128.693-53.307 21.984-21.984 37.639-48.606 46.077-77.655l-34.385-21.199 39.98-5.373c1.076-8.044 1.635-16.212 1.635-24.466 0-48.614-18.932-94.318-53.307-128.693zM380.451 332.451l-98.489-74.852c-7.322 3.829-15.438 6.031-23.708 6.363l-25.54 53.59-1.534-59.332c-6.642-3.268-12.552-7.832-17.438-13.475l-31.544 11.182 23.046-24.269c-3.167-6.759-4.933-14.015-5.217-21.412l-53.579-25.533 59.369-1.534c0.19-0.384 0.387-0.763 0.585-1.141l-74.852-98.49 98.489 74.852c7.322-3.828 15.437-6.030 23.708-6.362l25.54-53.591 1.533 59.332c6.643 3.269 12.553 7.832 17.439 13.476l31.545-11.184-23.047 24.27c3.168 6.76 4.934 14.015 5.218 21.412l53.578 25.533-59.368 1.535c-0.189 0.383-0.387 0.762-0.585 1.14l74.851 98.49zM256.051 257.733v0zM246.021 254.951c3.363 0.715 6.722 1.059 10.028 1.059 2.072 0 4.125-0.135 6.147-0.398l0.046-0.016-0.005 0.011c4.366-0.572 8.588-1.75 12.566-3.448l-35.773-27.188-27.19-35.776c-1.188 2.797-2.135 5.742-2.79 8.826-5.513 25.93 11.040 51.418 36.971 56.93zM281.060 167.058v0 0c-4.528-2.772-9.591-4.842-15.080-6.009-3.363-0.715-6.722-1.059-10.027-1.059-2.075 0-4.129 0.136-6.154 0.399l-0.034 0.005c-4.367 0.571-8.587 1.75-12.566 3.447l35.772 27.188 27.19 35.777c1.188-2.797 2.135-5.743 2.79-8.827 4.345-20.441-5.028-40.6-21.891-50.921z" />
<glyph unicode="&#xe618;" d="M394.767 448c0 0-100.478 0-133.97 0-60.061 0-116.585-45.503-116.585-98.211 0-53.863 40.941-97.333 102.044-97.333 4.249 0 8.378 0.085 12.42 0.376-3.964-7.593-6.8-16.144-6.8-25.021 0-14.969 8.052-27.105 18.234-37.012-7.693 0-15.121-0.224-23.226-0.224-74.391 0.001-131.65-47.38-131.65-96.511 0-48.389 62.771-78.656 137.167-78.656 84.812 0 131.653 48.122 131.653 96.514 0 38.801-11.448 62.036-46.843 87.067-12.108 8.571-35.266 29.418-35.266 41.672 0 14.36 4.098 21.434 25.714 38.323 22.156 17.312 37.837 41.651 37.837 69.958 0 33.703-15.011 66.549-43.187 77.386h42.478l29.98 21.672zM347.974 120.271c1.063-4.486 1.642-9.104 1.642-13.814 0-39.1-25.195-69.655-97.487-69.655-51.421 0-88.558 32.552-88.558 71.65 0 38.321 46.063 70.222 97.482 69.666 12-0.127 23.184-2.058 33.334-5.345 27.914-19.414 47.938-30.38 53.587-52.502zM265.643 266.112c-34.519 1.032-67.318 38.613-73.276 83.93-5.958 45.333 17.185 80.021 51.694 78.995 34.504-1.037 67.318-37.407 73.279-82.729 5.953-45.33-17.195-81.229-51.697-80.196z" />
<glyph unicode="&#xe619;" d="M279.533 448c0 0-100.478 0-133.97 0-60.060 0-116.585-45.503-116.585-98.211 0-53.863 40.941-97.333 102.044-97.333 4.249 0 8.378 0.085 12.421 0.376-3.965-7.593-6.801-16.144-6.801-25.021 0-14.969 8.052-27.105 18.234-37.012-7.693 0-15.121-0.224-23.226-0.224-74.391 0.001-131.65-47.379-131.65-96.51 0-48.389 62.771-78.657 137.167-78.657 84.812 0 131.653 48.122 131.653 96.514 0 38.8-11.448 62.036-46.843 87.067-12.108 8.572-35.265 29.418-35.265 41.672 0 14.36 4.098 21.434 25.714 38.323 22.156 17.312 37.836 41.651 37.836 69.958 0 33.703-15.010 66.549-43.186 77.386h42.477l29.98 21.672zM232.74 120.271c1.063-4.486 1.642-9.103 1.642-13.814 0-39.1-25.196-69.655-97.487-69.655-51.421 0-88.558 32.552-88.558 71.65 0 38.321 46.063 70.222 97.482 69.666 12-0.127 23.184-2.058 33.335-5.345 27.913-19.413 47.938-30.381 53.586-52.502zM150.409 266.112c-34.519 1.032-67.318 38.613-73.276 83.93-5.958 45.333 17.185 80.021 51.694 78.995 34.505-1.037 67.319-37.407 73.279-82.729 5.953-45.33-17.195-81.229-51.697-80.196zM416 352v96h-32v-96h-96v-32h96v-96h32v96h96v32z" />
<glyph unicode="&#xe61a;" d="M426.756 480h-342.135c-47.050 0-84.621-38.893-84.621-85.939v-340.176c0-48.211 37.571-85.885 84.621-85.885h342.134c47.048 0 85.245 37.674 85.245 85.885v340.176c0 47.046-38.197 85.939-85.244 85.939zM352 464v-80h-80v80h80zM240 464v-80h-80v80h80zM16 384v10.061c0 38.564 30.783 69.939 68.621 69.939h43.379v-80h-112zM384 160h-96v-96h-64v96h-96v64h96v96h64v-96h96v-64zM496 384h-112v80h42.756c38.182 0 69.244-31.375 69.244-69.939v-10.061z" />
<glyph unicode="&#xe61b;" d="M0.403 45.168c-0.122 1.266-0.226 2.535-0.292 3.815 0.065-1.28 0.17-2.549 0.292-3.815zM117.954 197.426c46.005-1.369 76.867 46.349 68.931 106.599-7.947 60.24-51.698 108.584-97.704 109.961-46.013 1.365-76.87-44.741-68.926-105 7.941-60.234 51.676-110.187 97.699-111.56zM512 352v42.655c0 46.94-38.391 85.345-85.329 85.345h-341.328c-46.138 0-84.006-37.116-85.282-82.963 29.181 25.693 69.662 47.158 111.437 47.158 44.652 0 178.622 0 178.622 0l-39.974-33.809h-56.634c37.565-14.402 57.578-58.062 57.578-102.861 0-37.624-20.905-69.977-50.444-92.984-28.822-22.451-34.286-31.854-34.286-50.939 0-16.289 30.873-44 47.016-55.394 47.191-33.269 62.458-64.156 62.458-115.728 0-8.214-1.021-16.415-3.033-24.48h153.871c46.937 0 85.328 38.375 85.328 85.345v266.654h-96v-95.999h-32v96h-95.999v32h95.999v96h32v-96h96zM92.943 97.032c10.807 0 20.711 0.295 30.968 0.295-13.573 13.167-24.313 29.3-24.313 49.19 0 11.804 3.782 23.168 9.067 33.26-5.391-0.385-10.895-0.497-16.563-0.497-37.178 0-68.753 12.038-92.102 31.927v-33.621l0.003-100.865c26.72 12.687 58.444 20.311 92.94 20.311zM1.71 36.371c-0.556 2.729-0.983 5.503-1.271 8.317 0.287-2.814 0.715-5.588 1.271-8.317zM227.725 3.577c-7.529 29.403-34.227 43.982-71.444 69.784-13.536 4.366-28.447 6.937-44.447 7.104-44.809 0.482-86.554-17.471-110.108-44.186 7.96-38.853 42.517-68.279 83.617-68.279h143.222c0.908 5.564 1.348 11.316 1.348 17.216 0 6.267-0.767 12.396-2.188 18.361z" />
<glyph unicode="&#xe61c;" d="M218.503 70.919c0-37.534-23.195-67.196-88.879-69.588-38.492 21.893-70.745 53.476-93.454 91.433 11.845 29.248 48.846 51.523 91.158 51.057 12.011-0.126 23.205-2.057 33.372-5.35 27.954-19.433 50.5-31.576 56.162-53.724 1.057-4.482 1.641-9.103 1.641-13.828zM256 480c-73.97 0-140.598-31.385-187.333-81.549 18.467 10.226 40.269 16.319 63.451 16.319 33.534 0 128.219 0 128.219 0l-28.652-30.070h-33.655c23.748-13.606 36.376-41.624 36.376-72.506 0-28.346-15.708-51.19-37.89-68.529-21.64-16.901-25.746-23.983-25.746-38.367 0-12.271 25.861-30.549 37.75-39.468 41.409-31.056 49.789-50.592 49.789-89.435 0-39.363-34.468-78.552-92.933-91.871 28.174-10.669 58.713-16.524 90.624-16.524 141.385 0 256 114.615 256 256s-114.615 256-256 256zM384 288v-64h-32v64h-64v32h64v64h32v-64h64v-32h-64zM182.884 310.264c5.961-45.388-13.923-74.595-48.467-73.567-34.563 1.041-67.403 32.746-73.37 78.121-5.964 45.394 17.209 80.127 51.765 79.098 34.545-1.037 64.11-38.271 70.072-83.652zM110.443 158.966c-37.34 0-69.064-12.884-91.421-31.932-12.251 29.91-19.022 62.645-19.022 96.966 0 28.383 4.628 55.684 13.156 81.198 3.687-49.721 38.676-88.096 96.485-88.096 4.257 0 8.382 0.221 12.437 0.511-3.975-7.615-6.811-16.095-6.811-24.991 0-14.985 8.244-23.535 18.434-33.447-7.701 0-15.135-0.209-23.258-0.209z" />
<glyph unicode="&#xe61d;" d="M6.796 459.158v-470.315h260.078l88.807 99.228v371.087h-348.885zM325.777 121.6h-85.183l0.453-103.306h-206.16v413.225h291.341v-309.918zM120.071 235.327l-8.156 16.764c-3.625 6.344-5.437 11.327-8.156 16.764h-0.453c-1.813-5.437-4.078-9.968-7.249-16.764l-7.703-16.764h-24.014l26.733 46.669-25.826 45.763h24.014l8.156-16.764c2.719-5.437 4.984-9.968 6.796-15.406h0.453c2.266 5.891 4.078 9.968 6.344 15.406l7.703 16.764h24.014l-26.279-45.31 27.639-47.122h-24.014zM155.412 327.76h20.843v-74.761h36.701v-17.671h-57.543v92.432zM226.095 256.623c5.437-2.719 14.499-5.891 23.108-5.891 9.515 0 14.499 4.078 14.499 9.968s-4.531 9.062-15.405 13.14c-15.405 5.437-25.374 14.046-25.374 27.186 0 15.859 13.14 27.639 34.889 27.639 10.421 0 18.124-2.265 23.561-4.531l-4.531-16.764c-3.625 1.813-10.421 4.531-19.483 4.531s-13.593-4.078-13.593-9.062c0-5.89 5.437-8.609 17.218-13.14 16.312-5.89 24.014-14.499 24.014-27.639 0-15.405-11.781-28.545-37.154-28.545-10.421 0-20.843 2.719-26.279 5.437l4.531 17.671z" horiz-adv-x="363" />
<glyph unicode="&#xe61e;" d="M6.796 459.158v-470.315h260.078l88.807 99.228v371.087h-348.885zM325.777 121.6h-85.183l0.453-103.306h-206.16v413.225h290.889v-309.918zM130.945 238.046c-3.625-1.813-12.686-4.078-23.561-4.078-32.17 0-48.481 19.936-48.481 46.216 0 31.717 22.655 49.388 50.294 49.388 10.874 0 19.030-2.265 22.655-4.078l-4.078-16.764c-4.078 1.813-9.968 3.625-17.671 3.625-16.764 0-29.451-9.968-29.451-30.811 0-18.577 10.874-30.357 29.451-30.357 6.344 0 13.14 1.359 17.671 3.172l3.172-16.311zM145.444 256.623c5.437-2.719 14.499-5.891 23.108-5.891 9.515 0 14.499 4.078 14.499 9.968s-4.531 9.062-15.405 13.14c-15.405 5.437-25.374 14.046-25.374 27.186 0 15.859 13.14 27.639 34.888 27.639 10.421 0 18.124-2.265 23.561-4.531l-4.531-16.764c-3.625 1.813-10.421 4.531-19.483 4.531s-13.593-4.078-13.593-9.062c0-5.89 5.437-8.609 17.218-13.14 16.311-5.89 24.014-14.499 24.014-27.639 0-15.405-11.78-28.545-37.154-28.545-10.421 0-20.843 2.719-26.279 5.437l4.531 17.671zM240.595 235.327l-29.452 92.432h23.108l11.328-38.966c3.172-10.875 5.891-21.749 8.156-33.076v0c2.265 11.328 5.437 22.202 8.156 32.623l11.781 39.419h22.202l-30.81-92.432h-24.468z" horiz-adv-x="363" />
<glyph unicode="&#xe61f;" d="M762.846 359.731h-106.524v37.798c0 44.671-37.798 82.47-82.47 82.47h-347.060c-44.671 0-82.47-37.798-82.47-82.47v-41.235h-106.523c-20.617 3.436-37.798-17.181-37.798-41.235v-185.557c0-24.053 17.181-41.235 37.798-41.235h106.523v-41.235c0-44.671 37.798-82.47 82.47-82.47h350.497c44.671 0 82.47 37.798 82.47 82.47v41.235h106.524c20.617 0 37.798 20.618 37.798 41.235v185.557c-3.436 24.053-20.617 44.671-41.235 44.671zM178.685 397.53c0 27.49 20.618 48.108 48.108 48.108h350.497c27.49 0 48.107-20.618 48.107-48.108v-41.235h-446.712v41.235zM621.96 50.47c0-27.49-20.617-48.108-48.107-48.108h-347.060c-27.49 0-48.108 20.618-48.108 48.108v41.235h443.275v-41.235zM329.879 163.866c-6.873-3.436-20.618-6.873-37.798-6.873-51.543 0-79.034 30.926-79.034 75.597 0 51.544 37.798 79.034 82.47 79.034 17.181 0 30.926-3.436 37.798-6.873l-10.308-27.49c-6.873 3.436-13.745 3.436-27.49 3.436-27.49 0-48.108-17.181-48.108-48.108s17.181-48.108 48.108-48.108c10.308 0 20.618 3.436 27.49 3.436l6.873-24.053zM353.933 194.792c10.308-3.436 24.053-10.308 37.798-10.308s24.053 6.873 24.053 17.181c0 10.308-6.873 13.745-24.053 20.618-24.053 10.309-41.235 20.618-41.235 44.671s20.618 44.671 54.98 44.671c17.181 0 27.49-3.436 37.798-6.873l-10.308-30.926c-6.873 3.436-17.181 6.873-30.926 6.873s-20.618-6.873-20.618-13.745c0-10.308 6.873-13.745 27.49-20.618 27.49-10.309 37.798-24.053 37.798-44.671 0-24.053-20.618-44.671-58.416-44.671-17.181 0-34.363 3.436-41.235 10.308l6.873 27.49zM505.127 160.43l-48.108 147.758h37.798l17.181-61.852c3.436-17.181 10.309-34.363 13.745-51.543v0c3.436 17.181 6.872 34.363 13.745 51.543l20.617 61.852h34.362l-51.543-147.758h-37.798z" horiz-adv-x="801" />
<glyph unicode="&#xe620;" d="M762.846 359.731h-106.524v37.798c0 44.671-37.798 82.47-82.47 82.47h-347.060c-44.671 0-82.47-37.798-82.47-82.47v-41.235h-106.523c-20.617 3.436-37.798-17.181-37.798-41.235v-185.557c0-24.053 17.181-41.235 37.798-41.235h106.523v-41.235c0-44.671 37.798-82.47 82.47-82.47h350.497c44.671 0 82.47 37.798 82.47 82.47v41.235h106.524c20.617 0 37.798 20.618 37.798 41.235v185.557c-3.436 24.053-20.617 44.671-41.235 44.671zM178.685 397.53c0 27.49 20.618 48.108 48.108 48.108h350.497c27.49 0 48.107-20.618 48.107-48.108v-41.235h-446.712v41.235zM621.96 50.47c0-27.49-20.617-48.108-48.107-48.108h-347.060c-27.49 0-48.108 20.618-48.108 48.108v41.235h443.275v-41.235zM185.557 308.188h34.362v-92.779c0-41.235-20.618-58.416-51.543-58.416-6.873 0-17.181 0-24.053 3.436l3.436 27.49c3.436 0 10.309-3.436 17.181-3.436 13.745 0 24.053 6.873 24.053 30.926v92.779zM247.41 194.792c10.309-3.436 24.054-10.308 37.799-10.308s24.053 6.873 24.053 17.181c0 10.308-6.873 13.745-24.053 20.618-27.49 6.873-44.671 20.618-44.671 44.671s20.618 44.671 54.98 44.671c17.181 0 27.49-3.436 37.798-6.873l-3.436-30.926c-6.873 3.436-17.181 10.309-30.926 10.309-17.181 0-24.053-6.873-24.053-17.181s6.873-13.745 27.49-20.618 41.235-24.053 41.235-44.671c0-24.053-20.618-44.671-58.416-44.671-17.181 0-34.363 3.436-41.235 10.308l3.436 27.49zM501.692 236.027c0-48.108-30.926-79.034-72.161-79.034-44.671 0-68.725 34.363-68.725 75.597 0 44.671 27.49 79.034 72.161 79.034s68.725-34.363 68.725-75.598zM395.168 232.59c0-27.49 13.745-48.107 37.798-48.107s34.363 20.618 34.363 51.543c0 27.49-13.745 48.108-34.363 48.108-27.49 0-37.798-20.618-37.798-51.543zM522.308 160.43v147.758h37.798l30.926-54.98c10.308-17.181 17.181-34.363 24.053-51.543v0c-3.436 20.618-3.436 41.235-3.436 61.853v44.671h30.926v-147.758h-34.362l-30.926 58.416c-10.308 17.181-17.181 34.363-27.49 51.543v0c0-20.618 0-41.235 0-65.288v-44.671h-27.49z" horiz-adv-x="801" />
<glyph unicode="&#xe621;" d="M762.846 359.731h-106.524v37.798c0 44.671-37.798 82.47-82.47 82.47h-347.060c-44.671 0-82.47-37.798-82.47-82.47v-41.235h-106.523c-20.617 3.436-37.798-17.181-37.798-41.235v-185.557c0-24.053 17.181-41.235 37.798-41.235h106.523v-41.235c0-44.671 37.798-82.47 82.47-82.47h350.497c44.671 0 82.47 37.798 82.47 82.47v41.235h106.524c20.617 0 37.798 20.618 37.798 41.235v185.557c-3.436 24.053-20.617 44.671-41.235 44.671zM178.685 397.53c0 27.49 20.618 48.108 48.108 48.108h350.497c27.49 0 48.107-20.618 48.107-48.108v-41.235h-446.712v41.235zM621.96 50.47c0-27.49-20.617-48.108-48.107-48.108h-347.060c-27.49 0-48.108 20.618-48.108 48.108v41.235h443.275v-41.235zM216.483 304.751c10.309 3.436 24.053 3.436 44.671 3.436s34.363-3.436 44.671-10.308c10.308-6.873 17.181-20.618 17.181-34.363s-3.436-27.49-13.745-34.363c-10.308-13.745-27.49-17.181-48.108-17.181-3.436 0-6.873 0-10.309 0v-51.543h-34.362v144.322zM250.845 239.463c3.436 0 6.872 0 10.309 0 17.181 0 27.49 10.309 27.49 24.054s-10.308 20.618-27.49 20.618c-6.873 0-10.309 0-13.745 0v-44.671zM343.624 304.751c13.745 3.436 30.926 3.436 48.108 3.436 27.49 0 48.108-3.436 61.853-17.181 17.181-10.308 24.053-30.926 24.053-54.98 0-27.49-10.308-48.108-24.053-61.853-17.181-13.745-41.235-20.618-68.725-20.618-17.181 0-30.926 0-37.798 3.436v147.759zM377.986 184.483c3.436 0 6.873 0 10.308 0 30.926 0 51.543 17.181 51.543 51.543 0 30.926-17.181 48.108-48.108 48.108-6.873 0-13.745 0-13.745 0v-99.651zM498.255 308.188h89.342v-27.49h-58.416v-34.363h54.98v-27.49h-54.98v-58.416h-34.363v147.759z" horiz-adv-x="801" />
<glyph unicode="&#xe622;" d="M762.846 359.731h-106.524v37.798c0 44.671-37.798 82.47-82.47 82.47h-347.060c-44.671 0-82.47-37.798-82.47-82.47v-41.235h-106.523c-20.617 3.436-37.798-17.181-37.798-41.235v-185.557c0-24.053 17.181-41.235 37.798-41.235h106.523v-41.235c0-44.671 37.798-82.47 82.47-82.47h350.497c44.671 0 82.47 37.798 82.47 82.47v41.235h106.524c20.617 0 37.798 20.618 37.798 41.235v185.557c-3.436 24.053-20.617 44.671-41.235 44.671zM178.685 397.53c0 27.49 20.618 48.108 48.108 48.108h350.497c27.49 0 48.107-20.618 48.107-48.108v-41.235h-446.712v41.235zM621.96 50.47c0-27.49-20.617-48.108-48.107-48.108h-347.060c-27.49 0-48.108 20.618-48.108 48.108v41.235h443.275v-41.235zM309.262 160.43l-13.745 24.053c-3.436 10.308-6.873 20.618-10.308 27.49v0c-6.873-6.873-10.308-17.181-13.745-27.49l-13.745-24.053h-37.798l44.671 75.597-41.235 72.161h37.798l13.745-27.49c3.436-10.308 6.873-17.181 10.308-24.053v0c3.436 10.308 6.873 17.181 10.308 24.053l13.745 27.49h37.798l-41.235-72.161 44.671-75.598h-41.235zM367.678 308.188h34.363v-120.269h58.416v-27.49h-92.779v147.759zM481.074 194.792c10.308-3.436 24.053-10.308 37.799-10.308s24.053 6.873 24.053 17.181c0 10.308-6.872 13.745-24.053 20.618-24.053 10.309-41.235 20.618-41.235 44.671s20.618 44.671 54.98 44.671c17.181 0 27.49-3.436 37.798-6.873l-6.872-30.926c-6.872 3.436-17.181 6.873-30.926 6.873s-20.617-6.873-20.617-13.745c0-10.308 6.872-13.745 27.49-20.618 27.49-10.309 37.798-24.053 37.798-44.671 0-24.053-20.617-44.671-58.416-44.671-17.181 0-34.363 3.436-41.235 10.308l3.436 27.49z" horiz-adv-x="801" />
<glyph unicode="&#xe623;" d="M762.846 359.731h-106.524v37.798c0 44.671-37.798 82.47-82.47 82.47h-347.060c-44.671 0-82.47-37.798-82.47-82.47v-41.235h-106.523c-20.617 3.436-37.798-17.181-37.798-41.235v-185.557c0-24.053 17.181-41.235 37.798-41.235h106.523v-41.235c0-44.671 37.798-82.47 82.47-82.47h350.497c44.671 0 82.47 37.798 82.47 82.47v41.235h106.524c20.617 0 37.798 20.618 37.798 41.235v185.557c-3.436 24.053-20.617 44.671-41.235 44.671zM178.685 397.53c0 27.49 20.618 48.108 48.108 48.108h350.497c27.49 0 48.107-20.618 48.107-48.108v-41.235h-446.712v41.235zM621.96 50.47c0-27.49-20.617-48.108-48.107-48.108h-347.060c-27.49 0-48.108 20.618-48.108 48.108v41.235h443.275v-41.235zM274.899 160.43l-10.308 24.053c-6.873 10.308-10.309 20.618-13.745 27.49v0c-3.436-6.873-6.873-17.181-13.745-27.49l-10.309-24.053h-41.235l44.671 75.597-41.235 72.161h37.798l13.745-27.49c3.436-10.308 6.873-17.181 10.309-24.053v0c3.436 10.308 6.872 17.181 10.309 24.053l13.745 27.49h37.798l-41.235-72.161 44.671-75.598h-41.235zM460.457 215.409c0 17.181 0 41.235 0 61.852v0c-3.436-20.617-10.308-41.235-17.181-58.416l-17.181-58.416h-27.49l-17.181 58.416c-3.436 17.181-10.308 37.798-13.745 58.416v0c0-20.618 0-44.671-3.436-61.853l-3.436-54.98h-30.926l10.308 147.759h44.671l13.745-48.108c3.436-20.618 10.308-37.798 13.745-54.98v0c3.436 17.181 10.308 37.798 13.745 54.98l17.181 48.108h44.671l6.873-147.758h-34.363v54.98zM518.872 308.188h34.362v-120.269h58.416v-27.49h-92.779v147.759z" horiz-adv-x="801" />
<glyph unicode="&#xe624;" d="M1493.959 314.203c-16.308 16.41-32.66 32.762-49.055 49.055-9.367 9.294-20.592 13.767-33.894 13.752-11.531-0.029-23.046 0-34.576-0.014v13.462c0 49.447-40.095 89.542-89.543 89.542h-1197.349c-49.447 0-89.543-40.095-89.543-89.542v-332.916c0-49.447 40.095-89.543 89.543-89.543h1197.349c49.447 0 89.543 40.095 89.543 89.543v13.447c37.002 0 74.004 0 111.005 0 14.246 0 20.171 5.896 20.171 20.287 0 62.996-0.087 126.007 0.043 189.003-0.014 13.273-4.429 24.571-13.694 33.923zM1484.97 270.637c0-58.625 0-116.452 0-174.598-72.639 0-145.045 0-217.887 0 0 87.001 0 174.089 0 261.598 43.203 0 86.58 0 130.683 0 0-1.815 0-3.732 0-5.678 0-20.926 0-41.867 0.043-62.808 0-12.024 6.477-18.501 18.588-18.516 20.766-0.014 41.475 0 62.27 0 1.96 0 3.921 0 6.303 0zM1484.345 292.711c-22.291 0-43.159 0-64.376 0 0 21.202 0 42.186 0 64.274 2.803-1.83 5.344-2.948 7.13-4.749 17.441-17.296 34.852-34.649 52.134-52.090 1.815-1.844 3.006-4.342 5.111-7.435zM224.451 374.702h67.977v-190.485c0-85.853-41.141-115.827-107.332-115.827-15.64 0-36.218 2.687-49.636 7.159l7.595 55.009c9.381-3.122 21.478-5.373 34.882-5.373 28.623 0 46.499 12.968 46.499 59.918v189.599zM351.431 143.512c18.341-9.396 46.499-18.777 75.572-18.777 31.295 0 47.85 12.968 47.85 32.645 0 18.777-14.304 29.509-50.522 42.476-50.086 17.441-82.731 45.163-82.731 88.976 0 51.422 42.927 90.776 114.041 90.776 33.981 0 59.017-7.159 76.908-15.204l-15.205-55.009c-12.067 5.809-33.546 14.304-63.055 14.304s-43.827-13.418-43.827-29.058c0-19.227 16.99-27.722 55.895-42.476 53.223-19.677 78.258-47.399 78.258-89.876 0-50.522-38.904-93.463-121.621-93.463-34.432 0-68.413 8.945-85.418 18.341l13.854 56.345zM866.553 227.13c0-98.822-59.932-158.754-148.022-158.754-89.426 0-141.749 67.527-141.749 153.38 0 90.327 57.681 157.853 146.672 157.853 92.548 0 143.099-69.313 143.099-152.481zM648.768 223.107c0-59.017 27.722-100.608 73.336-100.608 46.063 0 72.465 43.827 72.465 102.394 0 54.108-25.951 100.608-72.9 100.608-46.063 0-72.9-43.813-72.9-102.394zM911.251 73.313v301.389h79.58l62.604-110.44c17.891-31.76 35.796-69.313 49.215-103.295h1.336c-4.487 39.805-5.809 80.495-5.809 125.659v88.076h62.619v-301.389h-71.55l-64.434 116.248c-17.862 32.195-37.553 71.099-52.308 106.431l-1.365-0.45c1.815-39.79 2.701-82.282 2.701-131.467v-90.776h-62.59z" horiz-adv-x="1508" />
<glyph unicode="&#xe625;" d="M1493.945 314.203c-16.308 16.41-32.66 32.762-49.055 49.055-9.367 9.294-20.592 13.767-33.894 13.752-11.531-0.029-23.046 0-34.576-0.014v13.462c0.014 49.447-40.081 89.542-89.528 89.542h-1197.349c-49.447 0-89.543-40.095-89.543-89.542v-332.916c0-49.447 40.095-89.543 89.543-89.543h1197.349c49.447 0 89.543 40.095 89.543 89.543v13.447c37.002 0 74.004 0 111.005 0 14.246 0 20.171 5.896 20.171 20.287 0 62.996-0.087 126.007 0.043 189.003-0.014 13.273-4.444 24.571-13.708 33.923zM1484.956 270.637c0-58.625 0-116.452 0-174.598-72.639 0-145.045 0-217.887 0 0 87.001 0 174.089 0 261.598 43.203 0 86.58 0 130.683 0 0-1.815 0-3.732 0-5.678 0-20.926 0-41.867 0.043-62.808 0-12.024 6.477-18.501 18.588-18.516 20.766-0.014 41.475 0 62.27 0 1.975 0 3.921 0 6.303 0zM1484.331 292.711c-22.291 0-43.159 0-64.376 0 0 21.202 0 42.186 0 64.274 2.803-1.83 5.344-2.948 7.13-4.749 17.441-17.296 34.852-34.649 52.134-52.090 1.83-1.844 3.021-4.342 5.111-7.435zM473.067 76.305l-27.214 54.428c-11.153 20.955-18.283 36.581-26.764 53.964h-0.901c-6.245-17.397-13.825-33.009-23.192-53.964l-24.978-54.428h-77.605l86.972 152.103-83.849 148.545h78.055l26.314-54.864c8.916-18.283 15.611-33.008 22.741-49.955h0.901c7.13 19.183 12.939 32.558 20.519 49.955l25.413 54.864h77.62l-84.75-146.744 89.208-153.889h-78.491zM588.197 376.952h68.239v-243.548h119.544v-57.101h-187.783v300.647zM818.399 146.329c18.298-9.366 46.398-18.733 75.384-18.733 31.222 0 47.734 12.939 47.734 32.558 0 18.733-14.275 29.436-50.405 42.375-49.956 17.397-82.543 45.061-82.543 88.772 0 51.291 42.825 90.545 113.75 90.545 33.909 0 58.886-7.145 76.72-15.161l-15.161-54.864c-12.053 5.795-33.458 14.275-62.894 14.275s-43.726-13.389-43.726-29c0-19.184 16.962-27.665 55.764-42.375 53.077-19.619 78.056-47.283 78.056-89.658 0-50.406-38.803-93.231-121.317-93.231-34.33 0-68.239 8.931-85.186 18.298l13.825 56.2z" horiz-adv-x="1508" />
<glyph unicode="&#xe626;" d="M1493.945 314.203c-16.308 16.41-32.66 32.762-49.055 49.055-9.367 9.294-20.592 13.767-33.894 13.752-11.531-0.029-23.046 0-34.576-0.014v13.462c0.014 49.447-40.081 89.542-89.528 89.542h-1197.349c-49.447 0-89.543-40.095-89.543-89.542v-332.916c0-49.447 40.095-89.543 89.543-89.543h1197.349c49.447 0 89.543 40.095 89.543 89.543v13.447c37.002 0 74.004 0 111.005 0 14.246 0 20.171 5.896 20.171 20.287 0 62.996-0.087 125.993 0.043 189.003-0.014 13.273-4.444 24.571-13.708 33.923zM1484.956 270.637c0-58.625 0-116.452 0-174.598-72.639 0-145.045 0-217.887 0 0 87.001 0 174.089 0 261.598 43.203 0 86.58 0 130.683 0 0-1.815 0-3.732 0-5.678 0-20.926 0-41.867 0.043-62.808 0-12.024 6.477-18.501 18.588-18.516 20.766-0.014 41.475 0 62.27 0 1.975 0 3.921 0 6.303 0zM1484.331 292.711c-22.291 0-43.159 0-64.376 0 0 21.202 0 42.186 0 64.274 2.803-1.83 5.344-2.948 7.13-4.749 17.441-17.296 34.852-34.649 52.134-52.090 1.83-1.844 3.021-4.342 5.111-7.435zM498.858 81.954c-12.489-6.274-40.589-12.968-77.155-12.968-103.933 0-157.462 64.695-157.462 150.331 0 102.597 73.147 159.698 164.142 159.698 35.245 0 62.008-7.145 74.048-13.374l-13.825-53.978c-13.839 5.794-33.009 11.153-57.101 11.153-53.978 0-95.903-32.572-95.903-99.476 0-60.208 35.68-98.125 96.339-98.125 20.519 0 43.261 4.458 56.65 9.817l10.267-53.077zM545.749 143.498c18.283-9.381 46.398-18.748 75.384-18.748 31.222 0 47.734 12.939 47.734 32.558 0 18.748-14.275 29.45-50.405 42.375-49.956 17.397-82.528 45.061-82.528 88.772 0 51.291 42.825 90.545 113.75 90.545 33.894 0 58.886-7.145 76.72-15.161l-15.161-54.864c-12.053 5.795-33.458 14.275-62.894 14.275s-43.711-13.389-43.711-29c0-19.184 16.947-27.665 55.75-42.375 53.077-19.619 78.056-47.283 78.056-89.658 0-50.406-38.803-93.231-121.331-93.231-34.345 0-68.239 8.931-85.2 18.298l13.84 56.214zM855.356 73.473l-96.353 300.633h74.483l36.596-127.125c10.267-35.695 19.634-70.039 26.764-107.506h1.351c7.566 36.13 16.933 71.826 27.199 106.17l38.367 128.461h72.261l-101.261-300.633h-79.406z" horiz-adv-x="1508" />
<glyph unicode="&#xe627;" d="M1493.974 314.203c-16.308 16.425-32.66 32.762-49.055 49.055-9.367 9.294-20.592 13.767-33.894 13.738-11.531-0.029-23.046 0-34.576 0v13.448c0 49.476-40.095 89.557-89.543 89.557h-1197.349c-49.447 0-89.543-40.080-89.543-89.557v-332.887c0-49.462 40.095-89.543 89.543-89.543h1197.349c49.447 0 89.543 40.081 89.543 89.543v13.447c37.002 0 74.004 0 111.005 0 14.246 0 20.171 5.896 20.171 20.272 0 62.996-0.087 126.007 0.043 189.017-0.014 13.259-4.429 24.557-13.694 33.909zM1484.985 270.637c0-58.625 0-116.452 0-174.598-72.639 0-145.045 0-217.887 0 0 87.015 0 174.089 0 261.613 43.203 0 86.58 0 130.683 0 0-1.8 0-3.732 0-5.692 0-20.911 0-41.867 0.043-62.793 0-12.024 6.477-18.487 18.588-18.516 20.766-0.029 41.475 0 62.27 0 1.96-0.014 3.921-0.014 6.303-0.014zM1484.36 292.711c-22.291 0-43.159 0-64.376 0 0 21.202 0 42.171 0 64.274 2.803-1.845 5.344-2.948 7.13-4.749 17.441-17.281 34.852-34.649 52.134-52.090 1.815-1.844 3.006-4.342 5.111-7.435zM307.822 370.766c20.955 3.543 50.406 6.244 91.895 6.244 41.925 0 71.796-8.030 91.88-24.106 19.169-15.146 32.108-40.139 32.108-69.575s-9.803-54.428-27.65-71.361c-23.192-21.87-57.536-31.687-97.689-31.687-8.916 0-16.947 0.45-23.192 1.336v-107.492h-67.368v296.639zM375.189 234.26c5.779-1.336 12.939-1.786 22.741-1.786 36.116 0 58.422 18.298 58.422 49.070 0 27.65-19.169 44.161-53.077 44.161-13.825 0-23.192-1.336-28.1-2.672v-88.773zM567.038 370.766c24.992 3.993 57.551 6.244 91.895 6.244 57.101 0 94.102-10.267 123.117-32.137 31.222-23.177 50.841-60.208 50.841-113.286 0-57.55-20.955-97.253-49.941-121.796-31.673-26.299-79.841-38.803-138.728-38.803-35.245 0-60.208 2.236-77.169 4.458v295.318zM635.292 125.418c5.794-1.336 15.161-1.336 23.641-1.336 61.544-0.45 101.697 33.444 101.697 105.255 0.45 62.459-36.13 95.467-94.567 95.467-15.161 0-24.977-1.336-30.772-2.701v-196.685zM877.561 374.76h183.775v-55.764h-115.537v-68.689h107.956v-55.314h-107.956v-120.88h-68.239v300.647z" horiz-adv-x="1508" />
<glyph unicode="&#xe628;" d="M1493.974 314.217c-16.308 16.41-32.66 32.762-49.055 49.041-9.367 9.308-20.592 13.781-33.894 13.752-11.531-0.029-23.046 0-34.576-0.014v13.462c0 49.447-40.095 89.542-89.543 89.542h-1197.349c-49.447 0-89.543-40.095-89.543-89.542v-332.916c0-49.447 40.095-89.543 89.543-89.543h1197.349c49.447 0 89.543 40.095 89.543 89.543v13.447c37.002 0 74.004 0 111.005 0 14.246 0 20.171 5.896 20.171 20.287 0 62.996-0.087 125.993 0.043 189.003-0.014 13.259-4.429 24.571-13.694 33.938zM1484.985 270.651c0-58.625 0-116.466 0-174.598-72.639 0-145.045 0-217.887 0 0 87.001 0 174.089 0 261.598 43.203 0 86.58 0 130.683 0 0-1.8 0-3.732 0-5.678 0-20.926 0-41.867 0.043-62.793 0-12.024 6.477-18.501 18.588-18.516 20.766-0.029 41.475 0 62.27 0 1.96-0.014 3.921-0.014 6.303-0.014zM1484.36 292.711c-22.291 0-43.159 0-64.376 0 0 21.202 0 42.186 0 64.274 2.803-1.83 5.344-2.948 7.13-4.749 17.441-17.281 34.852-34.649 52.134-52.090 1.815-1.844 3.006-4.342 5.111-7.435zM419.815 76.537l-27.214 54.413c-11.153 20.955-18.283 36.596-26.764 53.978h-0.901c-6.245-17.383-13.825-33.009-23.206-53.978l-24.978-54.413h-77.62l86.986 152.103-83.85 148.53h78.070l26.314-54.849c8.931-18.298 15.611-33.008 22.756-49.955h0.886c7.145 19.183 12.954 32.558 20.519 49.955l25.428 54.849h77.62l-84.75-146.744 89.223-153.889h-78.52zM789.21 191.623c-1.336 36.13-2.701 79.841-2.701 123.553h-1.336c-9.366-38.353-21.841-81.178-33.444-116.423l-36.581-117.308h-53.077l-32.123 116.423c-9.817 35.245-20.069 78.055-27.199 117.308h-0.9c-1.786-40.589-3.122-86.972-5.359-124.439l-5.344-114.186h-62.894l19.183 300.633h90.544l29.422-100.346c9.381-34.794 18.748-72.276 25.428-107.506h1.351c8.466 34.794 18.734 74.498 28.55 107.956l32.108 99.911h88.758l16.511-300.633h-66.452l-4.443 115.058zM912.385 377.17h68.239v-243.548h119.544v-57.101h-187.783v300.647z" horiz-adv-x="1508" />
</font></defs></svg>